10.0.1.1:8080 -> 192.168.0.1:80
No nat match for -> 5.6.7.8:55555
10.0.1.1:8086 -> 192.168.0.4:80
9.8.7.6:21 -> 1.2.3.4:12
No nat match for -> 10.1.1.2:8080
No nat match for -> 34.65.12.9:22
10.0.1.2:8080 -> 1.1.1.1:1
